…
Directories are added recursively by default.

`zip_append()` is similar to `zip()`, but it appends files to an
existing ZIP archive.

### Listing ZIP files

`zip_list()` lists files in a ZIP archive. It returns a data frame:

``` r
zip_list("sources.zip")
#> # A tibble: 48 × 7
#>   filename     compressed_size uncompressed_size timestamp           permissions
#>   <chr>                  <dbl>             <dbl> <dttm>              <octmode>  
#> 1 R/                         0                 0 2024-05-01 11:47:26 755        
#> 2 R/assertion…             151               398 2024-05-01 11:23:38 644        
#> 3 R/inflate.R              627              2174 2024-05-01 11:00:32 644        
#> 4 R/process.R             1793              6585 2024-05-01 11:00:32 644        
#> 5 R/utils.R               1272              4143 2024-05-01 11:29:40 644        
#> # ℹ 43 more rows
#> # ℹ 2 more variables: crc32 <hexmode>, offset <dbl>
```
…
